<?xml version="1.0" encoding="UTF-8" standalone="no"?>
<!DOCTYPE svg PUBLIC "-//W3C//DTD SVG 1.1//EN"
 "http://www.w3.org/Graphics/SVG/1.1/DTD/svg11.dtd">
<!-- Generated by graphviz version 2.49.3 (0)
 -->
<!-- Pages: 1 -->
<svg width="958pt" height="1772pt"
 viewBox="0.00 0.00 958.49 1772.00" xmlns="http://www.w3.org/2000/svg" xmlns:xlink="http://www.w3.org/1999/xlink">
<g id="graph0" class="graph" transform="scale(1 1) rotate(0) translate(4 1768)">
<polygon fill="white" stroke="transparent" points="-4,4 -4,-1768 954.49,-1768 954.49,4 -4,4"/>
<!-- Constant377 -->
<g id="node1" class="node">
<title>Constant377</title>
<ellipse fill="none" stroke="black" cx="55.25" cy="-1746" rx="55.49" ry="18"/>
<text text-anchor="middle" x="55.25" y="-1742.3" font-family="Times,serif" font-size="14.00">Constant377</text>
</g>
<!-- Constant377&#45;&gt;Constant377 -->
<g id="edge1" class="edge">
<title>Constant377&#45;&gt;Constant377</title>
<path fill="none" stroke="black" d="M93.31,-1759.14C111.95,-1760.86 128.49,-1756.48 128.49,-1746 128.49,-1737.49 117.57,-1733 103.48,-1732.54"/>
<polygon fill="black" stroke="black" points="103.19,-1729.05 93.31,-1732.86 103.41,-1736.04 103.19,-1729.05"/>
</g>
<!-- Block386 -->
<g id="node2" class="node">
<title>Block386</title>
<ellipse fill="none" stroke="black" cx="120.25" cy="-1674" rx="44.69" ry="18"/>
<text text-anchor="middle" x="120.25" y="-1670.3" font-family="Times,serif" font-size="14.00">Block386</text>
</g>
<!-- Constant377&#45;&gt;Block386 -->
<g id="edge3" class="edge">
<title>Constant377&#45;&gt;Block386</title>
<path fill="none" stroke="black" d="M70.65,-1728.41C78.94,-1719.48 89.31,-1708.31 98.43,-1698.5"/>
<polygon fill="black" stroke="black" points="101.16,-1700.7 105.4,-1690.99 96.03,-1695.93 101.16,-1700.7"/>
</g>
<!-- Block386_Output_0 -->
<g id="node4" class="node">
<title>Block386_Output_0</title>
<ellipse fill="none" stroke="black" cx="120.25" cy="-1602" rx="82.59" ry="18"/>
<text text-anchor="middle" x="120.25" y="-1598.3" font-family="Times,serif" font-size="14.00">Block386_Output_0</text>
</g>
<!-- Block386&#45;&gt;Block386_Output_0 -->
<g id="edge4" class="edge">
<title>Block386&#45;&gt;Block386_Output_0</title>
<path fill="none" stroke="black" d="M120.25,-1655.7C120.25,-1647.98 120.25,-1638.71 120.25,-1630.11"/>
<polygon fill="black" stroke="black" points="123.75,-1630.1 120.25,-1620.1 116.75,-1630.1 123.75,-1630.1"/>
</g>
<!-- Input73 -->
<g id="node3" class="node">
<title>Input73</title>
<ellipse fill="none" stroke="black" cx="185.25" cy="-1746" rx="38.19" ry="18"/>
<text text-anchor="middle" x="185.25" y="-1742.3" font-family="Times,serif" font-size="14.00">Input73</text>
</g>
<!-- Input73&#45;&gt;Block386 -->
<g id="edge2" class="edge">
<title>Input73&#45;&gt;Block386</title>
<path fill="none" stroke="black" d="M170.5,-1729.12C162.14,-1720.12 151.52,-1708.68 142.2,-1698.65"/>
<polygon fill="black" stroke="black" points="144.76,-1696.25 135.39,-1691.31 139.63,-1701.02 144.76,-1696.25"/>
</g>
<!-- Convolution28 -->
<g id="node6" class="node">
<title>Convolution28</title>
<ellipse fill="none" stroke="black" cx="242.25" cy="-1530" rx="63.89" ry="18"/>
<text text-anchor="middle" x="242.25" y="-1526.3" font-family="Times,serif" font-size="14.00">Convolution28</text>
</g>
<!-- Block386_Output_0&#45;&gt;Convolution28 -->
<g id="edge6" class="edge">
<title>Block386_Output_0&#45;&gt;Convolution28</title>
<path fill="none" stroke="black" d="M148.23,-1584.94C165.52,-1575.02 187.88,-1562.19 206.45,-1551.54"/>
<polygon fill="black" stroke="black" points="208.29,-1554.52 215.22,-1546.5 204.81,-1548.44 208.29,-1554.52"/>
</g>
<!-- Constant321 -->
<g id="node5" class="node">
<title>Constant321</title>
<ellipse fill="none" stroke="black" cx="276.25" cy="-1602" rx="55.49" ry="18"/>
<text text-anchor="middle" x="276.25" y="-1598.3" font-family="Times,serif" font-size="14.00">Constant321</text>
</g>
<!-- Constant321&#45;&gt;Constant321 -->
<g id="edge5" class="edge">
<title>Constant321&#45;&gt;Constant321</title>
<path fill="none" stroke="black" d="M314.31,-1615.14C332.95,-1616.86 349.49,-1612.48 349.49,-1602 349.49,-1593.49 338.57,-1589 324.48,-1588.54"/>
<polygon fill="black" stroke="black" points="324.19,-1585.05 314.31,-1588.86 324.41,-1592.04 324.19,-1585.05"/>
</g>
<!-- Constant321&#45;&gt;Convolution28 -->
<g id="edge7" class="edge">
<title>Constant321&#45;&gt;Convolution28</title>
<path fill="none" stroke="black" d="M268.01,-1584.05C264.15,-1576.09 259.44,-1566.41 255.12,-1557.51"/>
<polygon fill="black" stroke="black" points="258.15,-1555.74 250.64,-1548.28 251.86,-1558.8 258.15,-1555.74"/>
</g>
<!-- Convolution396_Output_0 -->
<g id="node7" class="node">
<title>Convolution396_Output_0</title>
<ellipse fill="none" stroke="black" cx="242.25" cy="-1458" rx="105.08" ry="18"/>
<text text-anchor="middle" x="242.25" y="-1454.3" font-family="Times,serif" font-size="14.00">Convolution396_Output_0</text>
</g>
<!-- Convolution28&#45;&gt;Convolution396_Output_0 -->
<g id="edge8" class="edge">
<title>Convolution28&#45;&gt;Convolution396_Output_0</title>
<path fill="none" stroke="black" d="M242.25,-1511.7C242.25,-1503.98 242.25,-1494.71 242.25,-1486.11"/>
<polygon fill="black" stroke="black" points="245.75,-1486.1 242.25,-1476.1 238.75,-1486.1 245.75,-1486.1"/>
</g>
<!-- Plus30 -->
<g id="node13" class="node">
<title>Plus30</title>
<ellipse fill="none" stroke="black" cx="367.25" cy="-1386" rx="34.39" ry="18"/>
<text text-anchor="middle" x="367.25" y="-1382.3" font-family="Times,serif" font-size="14.00">Plus30</text>
</g>
<!-- Convolution396_Output_0&#45;&gt;Plus30 -->
<g id="edge14" class="edge">
<title>Convolution396_Output_0&#45;&gt;Plus30</title>
<path fill="none" stroke="black" d="M271.55,-1440.59C290.74,-1429.84 315.81,-1415.81 335.47,-1404.79"/>
<polygon fill="black" stroke="black" points="337.35,-1407.75 344.36,-1399.81 333.93,-1401.65 337.35,-1407.75"/>
</g>
<!-- Constant318 -->
<g id="node8" class="node">
<title>Constant318</title>
<ellipse fill="none" stroke="black" cx="492.25" cy="-1746" rx="55.49" ry="18"/>
<text text-anchor="middle" x="492.25" y="-1742.3" font-family="Times,serif" font-size="14.00">Constant318</text>
</g>
<!-- Constant318&#45;&gt;Constant318 -->
<g id="edge9" class="edge">
<title>Constant318&#45;&gt;Constant318</title>
<path fill="none" stroke="black" d="M530.31,-1759.14C548.95,-1760.86 565.49,-1756.48 565.49,-1746 565.49,-1737.49 554.57,-1733 540.48,-1732.54"/>
<polygon fill="black" stroke="black" points="540.19,-1729.05 530.31,-1732.86 540.41,-1736.04 540.19,-1729.05"/>
</g>
<!-- Reshape398 -->
<g id="node9" class="node">
<title>Reshape398</title>
<ellipse fill="none" stroke="black" cx="492.25" cy="-1674" rx="53.89" ry="18"/>
<text text-anchor="middle" x="492.25" y="-1670.3" font-family="Times,serif" font-size="14.00">Reshape398</text>
</g>
<!-- Constant318&#45;&gt;Reshape398 -->
<g id="edge10" class="edge">
<title>Constant318&#45;&gt;Reshape398</title>
<path fill="none" stroke="black" d="M492.25,-1727.7C492.25,-1719.98 492.25,-1710.71 492.25,-1702.11"/>
<polygon fill="black" stroke="black" points="495.75,-1702.1 492.25,-1692.1 488.75,-1702.1 495.75,-1702.1"/>
</g>
<!-- Reshape398_Output_0 -->
<g id="node10" class="node">
<title>Reshape398_Output_0</title>
<ellipse fill="none" stroke="black" cx="492.25" cy="-1602" rx="90.98" ry="18"/>
<text text-anchor="middle" x="492.25" y="-1598.3" font-family="Times,serif" font-size="14.00">Reshape398_Output_0</text>
</g>
<!-- Reshape398&#45;&gt;Reshape398_Output_0 -->
<g id="edge11" class="edge">
<title>Reshape398&#45;&gt;Reshape398_Output_0</title>
<path fill="none" stroke="black" d="M492.25,-1655.7C492.25,-1647.98 492.25,-1638.71 492.25,-1630.11"/>
<polygon fill="black" stroke="black" points="495.75,-1630.1 492.25,-1620.1 488.75,-1630.1 495.75,-1630.1"/>
</g>
<!-- Plus30_reshape1 -->
<g id="node11" class="node">
<title>Plus30_reshape1</title>
<ellipse fill="none" stroke="black" cx="492.25" cy="-1530" rx="70.39" ry="18"/>
<text text-anchor="middle" x="492.25" y="-1526.3" font-family="Times,serif" font-size="14.00">Plus30_reshape1</text>
</g>
<!-- Reshape398_Output_0&#45;&gt;Plus30_reshape1 -->
<g id="edge12" class="edge">
<title>Reshape398_Output_0&#45;&gt;Plus30_reshape1</title>
<path fill="none" stroke="black" d="M492.25,-1583.7C492.25,-1575.98 492.25,-1566.71 492.25,-1558.11"/>
<polygon fill="black" stroke="black" points="495.75,-1558.1 492.25,-1548.1 488.75,-1558.1 495.75,-1558.1"/>
</g>
<!-- Reshape398_Output_0_reshape1 -->
<g id="node12" class="node">
<title>Reshape398_Output_0_reshape1</title>
<ellipse fill="none" stroke="black" cx="492.25" cy="-1458" rx="126.98" ry="18"/>
<text text-anchor="middle" x="492.25" y="-1454.3" font-family="Times,serif" font-size="14.00">Reshape398_Output_0_reshape1</text>
</g>
<!-- Plus30_reshape1&#45;&gt;Reshape398_Output_0_reshape1 -->
<g id="edge13" class="edge">
<title>Plus30_reshape1&#45;&gt;Reshape398_Output_0_reshape1</title>
<path fill="none" stroke="black" d="M492.25,-1511.7C492.25,-1503.98 492.25,-1494.71 492.25,-1486.11"/>
<polygon fill="black" stroke="black" points="495.75,-1486.1 492.25,-1476.1 488.75,-1486.1 495.75,-1486.1"/>
</g>
<!-- Reshape398_Output_0_reshape1&#45;&gt;Plus30 -->
<g id="edge15" class="edge">
<title>Reshape398_Output_0_reshape1&#45;&gt;Plus30</title>
<path fill="none" stroke="black" d="M462.62,-1440.41C443.43,-1429.66 418.45,-1415.67 398.87,-1404.71"/>
<polygon fill="black" stroke="black" points="400.45,-1401.58 390.01,-1399.75 397.03,-1407.69 400.45,-1401.58"/>
</g>
<!-- Plus400_Output_0 -->
<g id="node14" class="node">
<title>Plus400_Output_0</title>
<ellipse fill="none" stroke="black" cx="367.25" cy="-1314" rx="76.89" ry="18"/>
<text text-anchor="middle" x="367.25" y="-1310.3" font-family="Times,serif" font-size="14.00">Plus400_Output_0</text>
</g>
<!-- Plus30&#45;&gt;Plus400_Output_0 -->
<g id="edge16" class="edge">
<title>Plus30&#45;&gt;Plus400_Output_0</title>
<path fill="none" stroke="black" d="M367.25,-1367.7C367.25,-1359.98 367.25,-1350.71 367.25,-1342.11"/>
<polygon fill="black" stroke="black" points="370.75,-1342.1 367.25,-1332.1 363.75,-1342.1 370.75,-1342.1"/>
</g>
<!-- ReLU32 -->
<g id="node15" class="node">
<title>ReLU32</title>
<ellipse fill="none" stroke="black" cx="367.25" cy="-1242" rx="40.89" ry="18"/>
<text text-anchor="middle" x="367.25" y="-1238.3" font-family="Times,serif" font-size="14.00">ReLU32</text>
</g>
<!-- Plus400_Output_0&#45;&gt;ReLU32 -->
<g id="edge17" class="edge">
<title>Plus400_Output_0&#45;&gt;ReLU32</title>
<path fill="none" stroke="black" d="M367.25,-1295.7C367.25,-1287.98 367.25,-1278.71 367.25,-1270.11"/>
<polygon fill="black" stroke="black" points="370.75,-1270.1 367.25,-1260.1 363.75,-1270.1 370.75,-1270.1"/>
</g>
<!-- ReLU402_Output_0 -->
<g id="node16" class="node">
<title>ReLU402_Output_0</title>
<ellipse fill="none" stroke="black" cx="367.25" cy="-1170" rx="83.39" ry="18"/>
<text text-anchor="middle" x="367.25" y="-1166.3" font-family="Times,serif" font-size="14.00">ReLU402_Output_0</text>
</g>
<!-- ReLU32&#45;&gt;ReLU402_Output_0 -->
<g id="edge18" class="edge">
<title>ReLU32&#45;&gt;ReLU402_Output_0</title>
<path fill="none" stroke="black" d="M367.25,-1223.7C367.25,-1215.98 367.25,-1206.71 367.25,-1198.11"/>
<polygon fill="black" stroke="black" points="370.75,-1198.1 367.25,-1188.1 363.75,-1198.1 370.75,-1198.1"/>
</g>
<!-- Pooling66 -->
<g id="node17" class="node">
<title>Pooling66</title>
<ellipse fill="none" stroke="black" cx="367.25" cy="-1098" rx="46.59" ry="18"/>
<text text-anchor="middle" x="367.25" y="-1094.3" font-family="Times,serif" font-size="14.00">Pooling66</text>
</g>
<!-- ReLU402_Output_0&#45;&gt;Pooling66 -->
<g id="edge19" class="edge">
<title>ReLU402_Output_0&#45;&gt;Pooling66</title>
<path fill="none" stroke="black" d="M367.25,-1151.7C367.25,-1143.98 367.25,-1134.71 367.25,-1126.11"/>
<polygon fill="black" stroke="black" points="370.75,-1126.1 367.25,-1116.1 363.75,-1126.1 370.75,-1126.1"/>
</g>
<!-- Pooling404_Output_0 -->
<g id="node18" class="node">
<title>Pooling404_Output_0</title>
<ellipse fill="none" stroke="black" cx="367.25" cy="-1026" rx="89.08" ry="18"/>
<text text-anchor="middle" x="367.25" y="-1022.3" font-family="Times,serif" font-size="14.00">Pooling404_Output_0</text>
</g>
<!-- Pooling66&#45;&gt;Pooling404_Output_0 -->
<g id="edge20" class="edge">
<title>Pooling66&#45;&gt;Pooling404_Output_0</title>
<path fill="none" stroke="black" d="M367.25,-1079.7C367.25,-1071.98 367.25,-1062.71 367.25,-1054.11"/>
<polygon fill="black" stroke="black" points="370.75,-1054.1 367.25,-1044.1 363.75,-1054.1 370.75,-1054.1"/>
</g>
<!-- Convolution110 -->
<g id="node20" class="node">
<title>Convolution110</title>
<ellipse fill="none" stroke="black" cx="495.25" cy="-954" rx="67.69" ry="18"/>
<text text-anchor="middle" x="495.25" y="-950.3" font-family="Times,serif" font-size="14.00">Convolution110</text>
</g>
<!-- Pooling404_Output_0&#45;&gt;Convolution110 -->
<g id="edge22" class="edge">
<title>Pooling404_Output_0&#45;&gt;Convolution110</title>
<path fill="none" stroke="black" d="M396.61,-1008.94C414.83,-998.97 438.42,-986.08 457.96,-975.39"/>
<polygon fill="black" stroke="black" points="459.8,-978.37 466.9,-970.5 456.44,-972.23 459.8,-978.37"/>
</g>
<!-- Constant340 -->
<g id="node19" class="node">
<title>Constant340</title>
<ellipse fill="none" stroke="black" cx="529.25" cy="-1026" rx="55.49" ry="18"/>
<text text-anchor="middle" x="529.25" y="-1022.3" font-family="Times,serif" font-size="14.00">Constant340</text>
</g>
<!-- Constant340&#45;&gt;Constant340 -->
<g id="edge21" class="edge">
<title>Constant340&#45;&gt;Constant340</title>
<path fill="none" stroke="black" d="M567.31,-1039.14C585.95,-1040.86 602.49,-1036.48 602.49,-1026 602.49,-1017.49 591.57,-1013 577.48,-1012.54"/>
<polygon fill="black" stroke="black" points="577.19,-1009.05 567.31,-1012.86 577.41,-1016.04 577.19,-1009.05"/>
</g>
<!-- Constant340&#45;&gt;Convolution110 -->
<g id="edge23" class="edge">
<title>Constant340&#45;&gt;Convolution110</title>
<path fill="none" stroke="black" d="M521.01,-1008.05C517.15,-1000.09 512.44,-990.41 508.12,-981.51"/>
<polygon fill="black" stroke="black" points="511.15,-979.74 503.64,-972.28 504.86,-982.8 511.15,-979.74"/>
</g>
<!-- Convolution406_Output_0 -->
<g id="node21" class="node">
<title>Convolution406_Output_0</title>
<ellipse fill="none" stroke="black" cx="495.25" cy="-882" rx="105.08" ry="18"/>
<text text-anchor="middle" x="495.25" y="-878.3" font-family="Times,serif" font-size="14.00">Convolution406_Output_0</text>
</g>
<!-- Convolution110&#45;&gt;Convolution406_Output_0 -->
<g id="edge24" class="edge">
<title>Convolution110&#45;&gt;Convolution406_Output_0</title>
<path fill="none" stroke="black" d="M495.25,-935.7C495.25,-927.98 495.25,-918.71 495.25,-910.11"/>
<polygon fill="black" stroke="black" points="498.75,-910.1 495.25,-900.1 491.75,-910.1 498.75,-910.1"/>
</g>
<!-- Plus112 -->
<g id="node27" class="node">
<title>Plus112</title>
<ellipse fill="none" stroke="black" cx="620.25" cy="-810" rx="38.99" ry="18"/>
<text text-anchor="middle" x="620.25" y="-806.3" font-family="Times,serif" font-size="14.00">Plus112</text>
</g>
<!-- Convolution406_Output_0&#45;&gt;Plus112 -->
<g id="edge30" class="edge">
<title>Convolution406_Output_0&#45;&gt;Plus112</title>
<path fill="none" stroke="black" d="M524.55,-864.59C543.37,-854.05 567.83,-840.35 587.31,-829.44"/>
<polygon fill="black" stroke="black" points="589.14,-832.43 596.15,-824.49 585.72,-826.32 589.14,-832.43"/>
</g>
<!-- Constant346 -->
<g id="node22" class="node">
<title>Constant346</title>
<ellipse fill="none" stroke="black" cx="745.25" cy="-1170" rx="55.49" ry="18"/>
<text text-anchor="middle" x="745.25" y="-1166.3" font-family="Times,serif" font-size="14.00">Constant346</text>
</g>
<!-- Constant346&#45;&gt;Constant346 -->
<g id="edge25" class="edge">
<title>Constant346&#45;&gt;Constant346</title>
<path fill="none" stroke="black" d="M783.31,-1183.14C801.95,-1184.86 818.49,-1180.48 818.49,-1170 818.49,-1161.49 807.57,-1157 793.48,-1156.54"/>
<polygon fill="black" stroke="black" points="793.19,-1153.05 783.31,-1156.86 793.41,-1160.04 793.19,-1153.05"/>
</g>
<!-- Reshape408 -->
<g id="node23" class="node">
<title>Reshape408</title>
<ellipse fill="none" stroke="black" cx="745.25" cy="-1098" rx="53.89" ry="18"/>
<text text-anchor="middle" x="745.25" y="-1094.3" font-family="Times,serif" font-size="14.00">Reshape408</text>
</g>
<!-- Constant346&#45;&gt;Reshape408 -->
<g id="edge26" class="edge">
<title>Constant346&#45;&gt;Reshape408</title>
<path fill="none" stroke="black" d="M745.25,-1151.7C745.25,-1143.98 745.25,-1134.71 745.25,-1126.11"/>
<polygon fill="black" stroke="black" points="748.75,-1126.1 745.25,-1116.1 741.75,-1126.1 748.75,-1126.1"/>
</g>
<!-- Reshape408_Output_0 -->
<g id="node24" class="node">
<title>Reshape408_Output_0</title>
<ellipse fill="none" stroke="black" cx="745.25" cy="-1026" rx="90.98" ry="18"/>
<text text-anchor="middle" x="745.25" y="-1022.3" font-family="Times,serif" font-size="14.00">Reshape408_Output_0</text>
</g>
<!-- Reshape408&#45;&gt;Reshape408_Output_0 -->
<g id="edge27" class="edge">
<title>Reshape408&#45;&gt;Reshape408_Output_0</title>
<path fill="none" stroke="black" d="M745.25,-1079.7C745.25,-1071.98 745.25,-1062.71 745.25,-1054.11"/>
<polygon fill="black" stroke="black" points="748.75,-1054.1 745.25,-1044.1 741.75,-1054.1 748.75,-1054.1"/>
</g>
<!-- Plus112_reshape1 -->
<g id="node25" class="node">
<title>Plus112_reshape1</title>
<ellipse fill="none" stroke="black" cx="745.25" cy="-954" rx="74.99" ry="18"/>
<text text-anchor="middle" x="745.25" y="-950.3" font-family="Times,serif" font-size="14.00">Plus112_reshape1</text>
</g>
<!-- Reshape408_Output_0&#45;&gt;Plus112_reshape1 -->
<g id="edge28" class="edge">
<title>Reshape408_Output_0&#45;&gt;Plus112_reshape1</title>
<path fill="none" stroke="black" d="M745.25,-1007.7C745.25,-999.98 745.25,-990.71 745.25,-982.11"/>
<polygon fill="black" stroke="black" points="748.75,-982.1 745.25,-972.1 741.75,-982.1 748.75,-982.1"/>
</g>
<!-- Reshape408_Output_0_reshape1 -->
<g id="node26" class="node">
<title>Reshape408_Output_0_reshape1</title>
<ellipse fill="none" stroke="black" cx="745.25" cy="-882" rx="126.98" ry="18"/>
<text text-anchor="middle" x="745.25" y="-878.3" font-family="Times,serif" font-size="14.00">Reshape408_Output_0_reshape1</text>
</g>
<!-- Plus112_reshape1&#45;&gt;Reshape408_Output_0_reshape1 -->
<g id="edge29" class="edge">
<title>Plus112_reshape1&#45;&gt;Reshape408_Output_0_reshape1</title>
<path fill="none" stroke="black" d="M745.25,-935.7C745.25,-927.98 745.25,-918.71 745.25,-910.11"/>
<polygon fill="black" stroke="black" points="748.75,-910.1 745.25,-900.1 741.75,-910.1 748.75,-910.1"/>
</g>
<!-- Reshape408_Output_0_reshape1&#45;&gt;Plus112 -->
<g id="edge31" class="edge">
<title>Reshape408_Output_0_reshape1&#45;&gt;Plus112</title>
<path fill="none" stroke="black" d="M715.62,-864.41C696.8,-853.87 672.42,-840.22 653.02,-829.35"/>
<polygon fill="black" stroke="black" points="654.65,-826.26 644.21,-824.42 651.23,-832.36 654.65,-826.26"/>
</g>
<!-- Plus410_Output_0 -->
<g id="node28" class="node">
<title>Plus410_Output_0</title>
<ellipse fill="none" stroke="black" cx="620.25" cy="-738" rx="76.89" ry="18"/>
<text text-anchor="middle" x="620.25" y="-734.3" font-family="Times,serif" font-size="14.00">Plus410_Output_0</text>
</g>
<!-- Plus112&#45;&gt;Plus410_Output_0 -->
<g id="edge32" class="edge">
<title>Plus112&#45;&gt;Plus410_Output_0</title>
<path fill="none" stroke="black" d="M620.25,-791.7C620.25,-783.98 620.25,-774.71 620.25,-766.11"/>
<polygon fill="black" stroke="black" points="623.75,-766.1 620.25,-756.1 616.75,-766.1 623.75,-766.1"/>
</g>
<!-- ReLU114 -->
<g id="node29" class="node">
<title>ReLU114</title>
<ellipse fill="none" stroke="black" cx="620.25" cy="-666" rx="45.49" ry="18"/>
<text text-anchor="middle" x="620.25" y="-662.3" font-family="Times,serif" font-size="14.00">ReLU114</text>
</g>
<!-- Plus410_Output_0&#45;&gt;ReLU114 -->
<g id="edge33" class="edge">
<title>Plus410_Output_0&#45;&gt;ReLU114</title>
<path fill="none" stroke="black" d="M620.25,-719.7C620.25,-711.98 620.25,-702.71 620.25,-694.11"/>
<polygon fill="black" stroke="black" points="623.75,-694.1 620.25,-684.1 616.75,-694.1 623.75,-694.1"/>
</g>
<!-- ReLU412_Output_0 -->
<g id="node30" class="node">
<title>ReLU412_Output_0</title>
<ellipse fill="none" stroke="black" cx="620.25" cy="-594" rx="83.39" ry="18"/>
<text text-anchor="middle" x="620.25" y="-590.3" font-family="Times,serif" font-size="14.00">ReLU412_Output_0</text>
</g>
<!-- ReLU114&#45;&gt;ReLU412_Output_0 -->
<g id="edge34" class="edge">
<title>ReLU114&#45;&gt;ReLU412_Output_0</title>
<path fill="none" stroke="black" d="M620.25,-647.7C620.25,-639.98 620.25,-630.71 620.25,-622.11"/>
<polygon fill="black" stroke="black" points="623.75,-622.1 620.25,-612.1 616.75,-622.1 623.75,-622.1"/>
</g>
<!-- Pooling160 -->
<g id="node31" class="node">
<title>Pooling160</title>
<ellipse fill="none" stroke="black" cx="620.25" cy="-522" rx="51.19" ry="18"/>
<text text-anchor="middle" x="620.25" y="-518.3" font-family="Times,serif" font-size="14.00">Pooling160</text>
</g>
<!-- ReLU412_Output_0&#45;&gt;Pooling160 -->
<g id="edge35" class="edge">
<title>ReLU412_Output_0&#45;&gt;Pooling160</title>
<path fill="none" stroke="black" d="M620.25,-575.7C620.25,-567.98 620.25,-558.71 620.25,-550.11"/>
<polygon fill="black" stroke="black" points="623.75,-550.1 620.25,-540.1 616.75,-550.1 623.75,-550.1"/>
</g>
<!-- Pooling414_Output_0 -->
<g id="node32" class="node">
<title>Pooling414_Output_0</title>
<ellipse fill="none" stroke="black" cx="620.25" cy="-450" rx="89.08" ry="18"/>
<text text-anchor="middle" x="620.25" y="-446.3" font-family="Times,serif" font-size="14.00">Pooling414_Output_0</text>
</g>
<!-- Pooling160&#45;&gt;Pooling414_Output_0 -->
<g id="edge36" class="edge">
<title>Pooling160&#45;&gt;Pooling414_Output_0</title>
<path fill="none" stroke="black" d="M620.25,-503.7C620.25,-495.98 620.25,-486.71 620.25,-478.11"/>
<polygon fill="black" stroke="black" points="623.75,-478.1 620.25,-468.1 616.75,-478.1 623.75,-478.1"/>
</g>
<!-- Times212_reshape0 -->
<g id="node33" class="node">
<title>Times212_reshape0</title>
<ellipse fill="none" stroke="black" cx="620.25" cy="-378" rx="81.79" ry="18"/>
<text text-anchor="middle" x="620.25" y="-374.3" font-family="Times,serif" font-size="14.00">Times212_reshape0</text>
</g>
<!-- Pooling414_Output_0&#45;&gt;Times212_reshape0 -->
<g id="edge37" class="edge">
<title>Pooling414_Output_0&#45;&gt;Times212_reshape0</title>
<path fill="none" stroke="black" d="M620.25,-431.7C620.25,-423.98 620.25,-414.71 620.25,-406.11"/>
<polygon fill="black" stroke="black" points="623.75,-406.1 620.25,-396.1 616.75,-406.1 623.75,-406.1"/>
</g>
<!-- Reshape416_Output_0 -->
<g id="node34" class="node">
<title>Reshape416_Output_0</title>
<ellipse fill="none" stroke="black" cx="620.25" cy="-306" rx="90.98" ry="18"/>
<text text-anchor="middle" x="620.25" y="-302.3" font-family="Times,serif" font-size="14.00">Reshape416_Output_0</text>
</g>
<!-- Times212_reshape0&#45;&gt;Reshape416_Output_0 -->
<g id="edge38" class="edge">
<title>Times212_reshape0&#45;&gt;Reshape416_Output_0</title>
<path fill="none" stroke="black" d="M620.25,-359.7C620.25,-351.98 620.25,-342.71 620.25,-334.11"/>
<polygon fill="black" stroke="black" points="623.75,-334.1 620.25,-324.1 616.75,-334.1 623.75,-334.1"/>
</g>
<!-- Times212 -->
<g id="node38" class="node">
<title>Times212</title>
<ellipse fill="none" stroke="black" cx="720.25" cy="-234" rx="46.29" ry="18"/>
<text text-anchor="middle" x="720.25" y="-230.3" font-family="Times,serif" font-size="14.00">Times212</text>
</g>
<!-- Reshape416_Output_0&#45;&gt;Times212 -->
<g id="edge42" class="edge">
<title>Reshape416_Output_0&#45;&gt;Times212</title>
<path fill="none" stroke="black" d="M643.69,-288.59C657.59,-278.86 675.34,-266.43 690.25,-255.99"/>
<polygon fill="black" stroke="black" points="692.47,-258.72 698.65,-250.11 688.45,-252.98 692.47,-258.72"/>
</g>
<!-- Constant312 -->
<g id="node35" class="node">
<title>Constant312</title>
<ellipse fill="none" stroke="black" cx="820.25" cy="-450" rx="55.49" ry="18"/>
<text text-anchor="middle" x="820.25" y="-446.3" font-family="Times,serif" font-size="14.00">Constant312</text>
</g>
<!-- Constant312&#45;&gt;Constant312 -->
<g id="edge39" class="edge">
<title>Constant312&#45;&gt;Constant312</title>
<path fill="none" stroke="black" d="M858.31,-463.14C876.95,-464.86 893.49,-460.48 893.49,-450 893.49,-441.49 882.57,-437 868.48,-436.54"/>
<polygon fill="black" stroke="black" points="868.19,-433.05 858.31,-436.86 868.41,-440.04 868.19,-433.05"/>
</g>
<!-- Times212_reshape1 -->
<g id="node36" class="node">
<title>Times212_reshape1</title>
<ellipse fill="none" stroke="black" cx="820.25" cy="-378" rx="81.79" ry="18"/>
<text text-anchor="middle" x="820.25" y="-374.3" font-family="Times,serif" font-size="14.00">Times212_reshape1</text>
</g>
<!-- Constant312&#45;&gt;Times212_reshape1 -->
<g id="edge40" class="edge">
<title>Constant312&#45;&gt;Times212_reshape1</title>
<path fill="none" stroke="black" d="M820.25,-431.7C820.25,-423.98 820.25,-414.71 820.25,-406.11"/>
<polygon fill="black" stroke="black" points="823.75,-406.1 820.25,-396.1 816.75,-406.1 823.75,-406.1"/>
</g>
<!-- Reshape393_Output_0 -->
<g id="node37" class="node">
<title>Reshape393_Output_0</title>
<ellipse fill="none" stroke="black" cx="820.25" cy="-306" rx="90.98" ry="18"/>
<text text-anchor="middle" x="820.25" y="-302.3" font-family="Times,serif" font-size="14.00">Reshape393_Output_0</text>
</g>
<!-- Times212_reshape1&#45;&gt;Reshape393_Output_0 -->
<g id="edge41" class="edge">
<title>Times212_reshape1&#45;&gt;Reshape393_Output_0</title>
<path fill="none" stroke="black" d="M820.25,-359.7C820.25,-351.98 820.25,-342.71 820.25,-334.11"/>
<polygon fill="black" stroke="black" points="823.75,-334.1 820.25,-324.1 816.75,-334.1 823.75,-334.1"/>
</g>
<!-- Reshape393_Output_0&#45;&gt;Times212 -->
<g id="edge43" class="edge">
<title>Reshape393_Output_0&#45;&gt;Times212</title>
<path fill="none" stroke="black" d="M796.8,-288.59C782.9,-278.86 765.15,-266.43 750.24,-255.99"/>
<polygon fill="black" stroke="black" points="752.04,-252.98 741.84,-250.11 748.02,-258.72 752.04,-252.98"/>
</g>
<!-- Times418_Output_0 -->
<g id="node39" class="node">
<title>Times418_Output_0</title>
<ellipse fill="none" stroke="black" cx="720.25" cy="-162" rx="83.69" ry="18"/>
<text text-anchor="middle" x="720.25" y="-158.3" font-family="Times,serif" font-size="14.00">Times418_Output_0</text>
</g>
<!-- Times212&#45;&gt;Times418_Output_0 -->
<g id="edge44" class="edge">
<title>Times212&#45;&gt;Times418_Output_0</title>
<path fill="none" stroke="black" d="M720.25,-215.7C720.25,-207.98 720.25,-198.71 720.25,-190.11"/>
<polygon fill="black" stroke="black" points="723.75,-190.1 720.25,-180.1 716.75,-190.1 723.75,-190.1"/>
</g>
<!-- Plus214 -->
<g id="node41" class="node">
<title>Plus214</title>
<ellipse fill="none" stroke="black" cx="798.25" cy="-90" rx="38.99" ry="18"/>
<text text-anchor="middle" x="798.25" y="-86.3" font-family="Times,serif" font-size="14.00">Plus214</text>
</g>
<!-- Times418_Output_0&#45;&gt;Plus214 -->
<g id="edge46" class="edge">
<title>Times418_Output_0&#45;&gt;Plus214</title>
<path fill="none" stroke="black" d="M738.73,-144.41C749.2,-135.02 762.42,-123.15 773.75,-112.99"/>
<polygon fill="black" stroke="black" points="776.12,-115.56 781.23,-106.27 771.45,-110.35 776.12,-115.56"/>
</g>
<!-- Constant367 -->
<g id="node40" class="node">
<title>Constant367</title>
<ellipse fill="none" stroke="black" cx="877.25" cy="-162" rx="55.49" ry="18"/>
<text text-anchor="middle" x="877.25" y="-158.3" font-family="Times,serif" font-size="14.00">Constant367</text>
</g>
<!-- Constant367&#45;&gt;Constant367 -->
<g id="edge45" class="edge">
<title>Constant367&#45;&gt;Constant367</title>
<path fill="none" stroke="black" d="M915.31,-175.14C933.95,-176.86 950.49,-172.48 950.49,-162 950.49,-153.49 939.57,-149 925.48,-148.54"/>
<polygon fill="black" stroke="black" points="925.19,-145.05 915.31,-148.86 925.41,-152.04 925.19,-145.05"/>
</g>
<!-- Constant367&#45;&gt;Plus214 -->
<g id="edge47" class="edge">
<title>Constant367&#45;&gt;Plus214</title>
<path fill="none" stroke="black" d="M858.92,-144.76C848.26,-135.31 834.67,-123.27 823.05,-112.98"/>
<polygon fill="black" stroke="black" points="825.19,-110.2 815.39,-106.19 820.55,-115.44 825.19,-110.2"/>
</g>
<!-- Plus422_Output_0 -->
<g id="node42" class="node">
<title>Plus422_Output_0</title>
<ellipse fill="none" stroke="black" cx="798.25" cy="-18" rx="76.89" ry="18"/>
<text text-anchor="middle" x="798.25" y="-14.3" font-family="Times,serif" font-size="14.00">Plus422_Output_0</text>
</g>
<!-- Plus214&#45;&gt;Plus422_Output_0 -->
<g id="edge48" class="edge">
<title>Plus214&#45;&gt;Plus422_Output_0</title>
<path fill="none" stroke="black" d="M798.25,-71.7C798.25,-63.98 798.25,-54.71 798.25,-46.11"/>
<polygon fill="black" stroke="black" points="801.75,-46.1 798.25,-36.1 794.75,-46.1 801.75,-46.1"/>
</g>
</g>
</svg>
